<?xml version="1.0" encoding="UTF-8" standalone="no"?>
<svg
   xmlns:dc="http://purl.org/dc/elements/1.1/"
   xmlns:cc="http://creativecommons.org/ns#"
   xmlns:rdf="http://www.w3.org/1999/02/22-rdf-syntax-ns#"
   xmlns:svg="http://www.w3.org/2000/svg"
   xmlns="http://www.w3.org/2000/svg"
   xmlns:sodipodi="http://sodipodi.sourceforge.net/DTD/sodipodi-0.dtd"
   xmlns:inkscape="http://www.inkscape.org/namespaces/inkscape"
   viewBox="0 0 18 18"
   version="1.1"
   id="svg12"
   sodipodi:docname="Icon-Minus.svg"
   inkscape:version="0.92.3 (2405546, 2018-03-11)">
  <metadata
     id="metadata16">
    <rdf:RDF>
      <cc:Work
         rdf:about="">
        <dc:format>image/svg+xml</dc:format>
        <dc:type
           rdf:resource="http://purl.org/dc/dcmitype/StillImage" />
        <dc:title></dc:title>
      </cc:Work>
    </rdf:RDF>
  </metadata>
  <sodipodi:namedview
     pagecolor="#ffffff"
     bordercolor="#666666"
     borderopacity="1"
     objecttolerance="10"
     gridtolerance="10"
     guidetolerance="10"
     inkscape:pageopacity="0"
     inkscape:pageshadow="2"
     inkscape:window-width="1920"
     inkscape:window-height="1001"
     id="namedview14"
     showgrid="false"
     inkscape:zoom="13.111111"
     inkscape:cx="10.974576"
     inkscape:cy="1"
     inkscape:window-x="-9"
     inkscape:window-y="-9"
     inkscape:window-maximized="1"
     inkscape:current-layer="svg12" />
  <defs
     id="defs7">
    <style
       id="style2">
      .cls-1 {
        fill: #ff9900;
        clip-path: url(#clip-Icon-Minus);
      }

      .cls-2 {
        fill: #ff9900;
      }
    </style>
    <clipPath
       id="clip-Icon-Minus">
      <rect
         width="18"
         height="18"
         id="rect4" />
    </clipPath>
  </defs>
  <g
     id="Icon-Minus"
     class="cls-1"
     clip-path="url(#clip-Icon-Minus)">
    <g
       id="Group_587"
       data-name="Group 587"
       transform="translate(-79 -109)">
      <rect
         id="Rectangle_3"
         data-name="Rectangle 3"
         width="16"
         height="2"
         transform="translate(80 117)" />
    </g>
  </g>
</svg>
